<svg width="80" height="80" viewBox="0 0 80 80" fill="none" xmlns="http://www.w3.org/2000/svg">
<circle cx="40" cy="40" r="40" fill="#49D489"/>
<path d="M60.6055 32.5781H19.3945C16.9675 32.5781 15 34.5456 15 36.9727V54.7461C15 57.1731 16.9675 59.1406 19.3945 59.1406H23.7891V47.4219H22.3242C21.5146 47.4219 20.8594 46.7667 20.8594 45.957C20.8594 45.1474 21.5146 44.4922 22.3242 44.4922C24.1103 44.4922 56.5229 44.4922 57.6758 44.4922C58.4855 44.4922 59.1406 45.1474 59.1406 45.957C59.1406 46.7667 58.4855 47.4219 57.6758 47.4219H56.2109V59.1406H60.6055C63.0325 59.1406 65 57.1731 65 54.7461V36.9727C65 34.5456 63.0325 32.5781 60.6055 32.5781ZM25.2539 41.3672H22.3242C21.5146 41.3672 20.8594 40.712 20.8594 39.9023C20.8594 39.0927 21.5146 38.4375 22.3242 38.4375H25.2539C26.0636 38.4375 26.7188 39.0927 26.7188 39.9023C26.7188 40.712 26.0636 41.3672 25.2539 41.3672Z" fill="white"/>
<path d="M26.7188 47.4219V63.5352C26.7188 64.3441 27.3746 65 28.1836 65H51.8164C52.6254 65 53.2812 64.3441 53.2812 63.5352V47.4219H26.7188ZM48.8867 59.1406H31.1133C30.3036 59.1406 29.6484 58.4854 29.6484 57.6758C29.6484 56.8661 30.3036 56.2109 31.1133 56.2109H48.8867C49.6964 56.2109 50.3516 56.8661 50.3516 57.6758C50.3516 58.4854 49.6964 59.1406 48.8867 59.1406ZM48.8867 53.2812H31.1133C30.3036 53.2812 29.6484 52.6261 29.6484 51.8164C29.6484 51.0067 30.3036 50.3516 31.1133 50.3516H48.8867C49.6964 50.3516 50.3516 51.0067 50.3516 51.8164C50.3516 52.6261 49.6964 53.2812 48.8867 53.2812Z" fill="white"/>
<path d="M59.1406 24.0588V29.6484H62.0703V28.1835C62.0703 26.2763 60.842 24.6656 59.1406 24.0588Z" fill="white"/>
<path d="M17.9297 28.1835V29.6484H20.8594V24.0588C19.158 24.6656 17.9297 26.2763 17.9297 28.1835Z" fill="white"/>
<path d="M47.4219 15.8583V23.789H55.3526L47.4219 15.8583Z" fill="white"/>
<path d="M45.957 26.7188C45.1474 26.7188 44.4922 26.0636 44.4922 25.2539V15H25.2539C24.4442 15 23.7891 15.6552 23.7891 16.4648C23.7891 21.3673 23.7891 24.5833 23.7891 29.6484H56.2109V26.7188H45.957Z" fill="white"/>
</svg>
