<svg width="747" height="306" viewBox="0 0 747 306" fill="none" xmlns="http://www.w3.org/2000/svg">
<g filter="url(#filter0_d)">
<rect x="1" y="1" width="739" height="298" fill="white"/>
</g>
<path d="M120.873 264H119.602L118.562 261.252H114.406L113.429 264H112.15L115.91 254.197H117.1L120.873 264ZM118.187 260.22L116.648 256.043C116.598 255.906 116.548 255.688 116.498 255.387H116.471C116.425 255.665 116.373 255.883 116.313 256.043L114.789 260.22H118.187ZM127.832 264H126.711V262.893H126.684C126.219 263.74 125.499 264.164 124.523 264.164C122.855 264.164 122.021 263.171 122.021 261.184V257H123.136V261.006C123.136 262.482 123.701 263.221 124.831 263.221C125.378 263.221 125.827 263.02 126.178 262.619C126.533 262.214 126.711 261.685 126.711 261.033V257H127.832V264ZM136.076 263.439C136.076 266.01 134.846 267.295 132.385 267.295C131.519 267.295 130.762 267.131 130.115 266.803V265.682C130.904 266.119 131.656 266.338 132.371 266.338C134.094 266.338 134.955 265.422 134.955 263.59V262.824H134.928C134.395 263.717 133.592 264.164 132.521 264.164C131.651 264.164 130.949 263.854 130.416 263.234C129.887 262.61 129.623 261.774 129.623 260.726C129.623 259.536 129.908 258.59 130.478 257.889C131.052 257.187 131.836 256.836 132.829 256.836C133.772 256.836 134.472 257.214 134.928 257.971H134.955V257H136.076V263.439ZM134.955 260.835V259.803C134.955 259.247 134.766 258.771 134.388 258.374C134.014 257.978 133.547 257.779 132.986 257.779C132.294 257.779 131.751 258.032 131.359 258.538C130.967 259.039 130.771 259.743 130.771 260.65C130.771 261.43 130.958 262.054 131.332 262.523C131.71 262.988 132.209 263.221 132.829 263.221C133.458 263.221 133.968 262.997 134.36 262.551C134.757 262.104 134.955 261.532 134.955 260.835ZM141.928 260.541H138.195V259.659H141.928V260.541ZM147.766 264H146.645V255.53C146.558 255.617 146.43 255.717 146.262 255.831C146.098 255.94 145.911 256.05 145.701 256.159C145.496 256.269 145.277 256.371 145.045 256.467C144.817 256.562 144.594 256.638 144.375 256.692V255.558C144.621 255.489 144.881 255.398 145.154 255.284C145.432 255.166 145.703 255.036 145.968 254.895C146.237 254.749 146.49 254.598 146.727 254.443C146.964 254.284 147.169 254.129 147.342 253.979H147.766V264ZM157.227 258.511C157.227 259.409 157.138 260.208 156.96 260.91C156.782 261.607 156.522 262.2 156.181 262.688C155.839 263.171 155.422 263.54 154.93 263.795C154.438 264.046 153.877 264.171 153.248 264.171C152.601 264.171 152.031 264.057 151.539 263.829V262.756C152.081 263.061 152.66 263.214 153.275 263.214C153.717 263.214 154.112 263.123 154.458 262.94C154.809 262.758 155.105 262.494 155.347 262.147C155.588 261.797 155.773 261.366 155.9 260.855C156.028 260.345 156.092 259.759 156.092 259.099H156.064C155.645 259.942 154.916 260.363 153.877 260.363C153.458 260.363 153.073 260.29 152.722 260.145C152.371 259.994 152.068 259.785 151.812 259.516C151.557 259.242 151.359 258.919 151.218 258.545C151.076 258.171 151.006 257.759 151.006 257.308C151.006 256.825 151.083 256.382 151.238 255.981C151.398 255.58 151.617 255.236 151.895 254.949C152.177 254.658 152.51 254.432 152.893 254.272C153.28 254.113 153.701 254.033 154.157 254.033C154.649 254.033 155.085 254.133 155.463 254.334C155.846 254.53 156.167 254.819 156.427 255.202C156.687 255.58 156.885 256.048 157.021 256.604C157.158 257.16 157.227 257.795 157.227 258.511ZM156.017 257.506C156.017 257.128 155.966 256.784 155.866 256.474C155.771 256.164 155.636 255.899 155.463 255.681C155.29 255.457 155.082 255.286 154.841 255.168C154.604 255.045 154.344 254.983 154.062 254.983C153.793 254.983 153.542 255.038 153.31 255.147C153.077 255.252 152.874 255.403 152.701 255.599C152.533 255.79 152.398 256.02 152.298 256.289C152.202 256.553 152.154 256.843 152.154 257.157C152.154 257.504 152.2 257.813 152.291 258.087C152.387 258.36 152.521 258.593 152.694 258.784C152.868 258.971 153.075 259.115 153.316 259.215C153.562 259.315 153.834 259.365 154.13 259.365C154.39 259.365 154.633 259.317 154.861 259.222C155.094 259.121 155.294 258.989 155.463 258.825C155.636 258.657 155.771 258.461 155.866 258.237C155.966 258.009 156.017 257.766 156.017 257.506Z" fill="#A2A4B9"/>
<path d="M37.8105 97.1973V103.671H39.0684V104.696H37.8105V107H36.7031V104.696H32.0957V103.726C32.5241 103.243 32.957 102.728 33.3945 102.181C33.832 101.629 34.249 101.071 34.6455 100.506C35.0465 99.9408 35.4157 99.3779 35.7529 98.8174C36.0947 98.2523 36.3818 97.7122 36.6143 97.1973H37.8105ZM33.3604 103.671H36.7031V98.8721C36.3613 99.4691 36.0378 100.002 35.7324 100.472C35.4271 100.941 35.1354 101.367 34.8574 101.75C34.584 102.133 34.3219 102.479 34.0713 102.789C33.8206 103.099 33.5837 103.393 33.3604 103.671ZM41.707 105.441L40.6133 108.805H39.8135L40.6133 105.441H41.707ZM49.2061 104.006C49.2061 104.484 49.124 104.917 48.96 105.305C48.7959 105.692 48.5612 106.025 48.2559 106.303C47.9551 106.581 47.5905 106.795 47.1621 106.945C46.7337 107.096 46.2575 107.171 45.7334 107.171C44.8219 107.171 44.1452 107.034 43.7031 106.761V105.571C44.3685 106 45.0498 106.214 45.7471 106.214C46.1025 106.214 46.4215 106.161 46.7041 106.057C46.9912 105.952 47.235 105.806 47.4355 105.619C47.6361 105.432 47.7887 105.207 47.8936 104.942C48.0029 104.678 48.0576 104.389 48.0576 104.074C48.0576 103.436 47.8434 102.937 47.415 102.577C46.9867 102.213 46.3646 102.03 45.5488 102.03C45.4167 102.03 45.2777 102.033 45.1318 102.037C44.986 102.042 44.8402 102.049 44.6943 102.058C44.5485 102.062 44.4049 102.069 44.2637 102.078C44.127 102.087 44.0016 102.099 43.8877 102.112L44.2227 97.1973H48.7549V98.209H45.1934L44.9951 101.087C45.141 101.078 45.2959 101.071 45.46 101.066C45.624 101.057 45.7699 101.053 45.8975 101.053C46.417 101.053 46.8818 101.121 47.292 101.258C47.7021 101.395 48.0485 101.59 48.3311 101.846C48.6182 102.096 48.8346 102.406 48.9805 102.775C49.1309 103.14 49.2061 103.55 49.2061 104.006ZM57.1016 102.058C57.1016 102.878 57.0264 103.605 56.876 104.238C56.7301 104.872 56.516 105.407 56.2334 105.845C55.9554 106.278 55.6113 106.608 55.2012 106.836C54.7956 107.059 54.333 107.171 53.8135 107.171C53.3213 107.171 52.8815 107.064 52.4941 106.85C52.1113 106.631 51.7878 106.314 51.5234 105.899C51.2591 105.485 51.0586 104.977 50.9219 104.375C50.7852 103.769 50.7168 103.076 50.7168 102.297C50.7168 101.44 50.7874 100.684 50.9287 100.027C51.0745 99.3711 51.2865 98.8219 51.5645 98.3799C51.8424 97.9333 52.1865 97.5983 52.5967 97.375C53.0114 97.1471 53.4854 97.0332 54.0186 97.0332C56.0739 97.0332 57.1016 98.708 57.1016 102.058ZM55.9531 102.167C55.9531 99.3779 55.29 97.9834 53.9639 97.9834C52.5648 97.9834 51.8652 99.403 51.8652 102.242C51.8652 104.89 52.5511 106.214 53.9229 106.214C55.2764 106.214 55.9531 104.865 55.9531 102.167ZM64.6484 102.058C64.6484 102.878 64.5732 103.605 64.4229 104.238C64.277 104.872 64.0628 105.407 63.7803 105.845C63.5023 106.278 63.1582 106.608 62.748 106.836C62.3424 107.059 61.8799 107.171 61.3604 107.171C60.8682 107.171 60.4284 107.064 60.041 106.85C59.6582 106.631 59.3346 106.314 59.0703 105.899C58.806 105.485 58.6055 104.977 58.4688 104.375C58.332 103.769 58.2637 103.076 58.2637 102.297C58.2637 101.44 58.3343 100.684 58.4756 100.027C58.6214 99.3711 58.8333 98.8219 59.1113 98.3799C59.3893 97.9333 59.7334 97.5983 60.1436 97.375C60.5583 97.1471 61.0322 97.0332 61.5654 97.0332C63.6208 97.0332 64.6484 98.708 64.6484 102.058ZM63.5 102.167C63.5 99.3779 62.8369 97.9834 61.5107 97.9834C60.1117 97.9834 59.4121 99.403 59.4121 102.242C59.4121 104.89 60.098 106.214 61.4697 106.214C62.8232 106.214 63.5 104.865 63.5 102.167Z" fill="#A2A4B9"/>
<path d="M38.5146 148.225C38.5146 148.667 38.4303 149.07 38.2617 149.435C38.0977 149.795 37.863 150.104 37.5576 150.364C37.2568 150.619 36.8945 150.818 36.4707 150.959C36.0469 151.1 35.5798 151.171 35.0693 151.171C34.1351 151.171 33.3923 150.993 32.8408 150.638V149.435C33.5016 149.954 34.2581 150.214 35.1104 150.214C35.4521 150.214 35.7598 150.171 36.0332 150.084C36.3112 149.997 36.5482 149.872 36.7441 149.708C36.9447 149.544 37.0973 149.346 37.2021 149.113C37.3115 148.881 37.3662 148.619 37.3662 148.327C37.3662 147.047 36.4548 146.406 34.6318 146.406H33.8184V145.456H34.5908C36.2041 145.456 37.0107 144.854 37.0107 143.651C37.0107 142.539 36.3955 141.983 35.165 141.983C34.4723 141.983 33.8229 142.216 33.2168 142.681V141.594C33.8411 141.22 34.584 141.033 35.4453 141.033C35.8555 141.033 36.2269 141.09 36.5596 141.204C36.8923 141.318 37.1771 141.478 37.4141 141.683C37.651 141.888 37.8333 142.134 37.9609 142.421C38.0931 142.708 38.1592 143.025 38.1592 143.371C38.1592 144.661 37.5075 145.49 36.2041 145.859V145.887C36.5368 145.923 36.8444 146.005 37.127 146.133C37.4095 146.256 37.6533 146.418 37.8584 146.618C38.0635 146.819 38.223 147.056 38.3369 147.329C38.4554 147.598 38.5146 147.896 38.5146 148.225ZM41.707 149.441L40.6133 152.805H39.8135L40.6133 149.441H41.707ZM49.5547 146.058C49.5547 146.878 49.4795 147.605 49.3291 148.238C49.1833 148.872 48.9691 149.407 48.6865 149.845C48.4085 150.278 48.0645 150.608 47.6543 150.836C47.2487 151.059 46.7861 151.171 46.2666 151.171C45.7744 151.171 45.3346 151.064 44.9473 150.85C44.5645 150.631 44.2409 150.314 43.9766 149.899C43.7122 149.485 43.5117 148.977 43.375 148.375C43.2383 147.769 43.1699 147.076 43.1699 146.297C43.1699 145.44 43.2406 144.684 43.3818 144.027C43.5277 143.371 43.7396 142.822 44.0176 142.38C44.2956 141.933 44.6396 141.598 45.0498 141.375C45.4645 141.147 45.9385 141.033 46.4717 141.033C48.527 141.033 49.5547 142.708 49.5547 146.058ZM48.4062 146.167C48.4062 143.378 47.7432 141.983 46.417 141.983C45.0179 141.983 44.3184 143.403 44.3184 146.242C44.3184 148.89 45.0042 150.214 46.376 150.214C47.7295 150.214 48.4062 148.865 48.4062 146.167ZM57.1016 146.058C57.1016 146.878 57.0264 147.605 56.876 148.238C56.7301 148.872 56.516 149.407 56.2334 149.845C55.9554 150.278 55.6113 150.608 55.2012 150.836C54.7956 151.059 54.333 151.171 53.8135 151.171C53.3213 151.171 52.8815 151.064 52.4941 150.85C52.1113 150.631 51.7878 150.314 51.5234 149.899C51.2591 149.485 51.0586 148.977 50.9219 148.375C50.7852 147.769 50.7168 147.076 50.7168 146.297C50.7168 145.44 50.7874 144.684 50.9287 144.027C51.0745 143.371 51.2865 142.822 51.5645 142.38C51.8424 141.933 52.1865 141.598 52.5967 141.375C53.0114 141.147 53.4854 141.033 54.0186 141.033C56.0739 141.033 57.1016 142.708 57.1016 146.058ZM55.9531 146.167C55.9531 143.378 55.29 141.983 53.9639 141.983C52.5648 141.983 51.8652 143.403 51.8652 146.242C51.8652 148.89 52.5511 150.214 53.9229 150.214C55.2764 150.214 55.9531 148.865 55.9531 146.167ZM64.6484 146.058C64.6484 146.878 64.5732 147.605 64.4229 148.238C64.277 148.872 64.0628 149.407 63.7803 149.845C63.5023 150.278 63.1582 150.608 62.748 150.836C62.3424 151.059 61.8799 151.171 61.3604 151.171C60.8682 151.171 60.4284 151.064 60.041 150.85C59.6582 150.631 59.3346 150.314 59.0703 149.899C58.806 149.485 58.6055 148.977 58.4688 148.375C58.332 147.769 58.2637 147.076 58.2637 146.297C58.2637 145.44 58.3343 144.684 58.4756 144.027C58.6214 143.371 58.8333 142.822 59.1113 142.38C59.3893 141.933 59.7334 141.598 60.1436 141.375C60.5583 141.147 61.0322 141.033 61.5654 141.033C63.6208 141.033 64.6484 142.708 64.6484 146.058ZM63.5 146.167C63.5 143.378 62.8369 141.983 61.5107 141.983C60.1117 141.983 59.4121 143.403 59.4121 146.242C59.4121 148.89 60.098 150.214 61.4697 150.214C62.8232 150.214 63.5 148.865 63.5 146.167Z" fill="#A2A4B9"/>
<path d="M36.9492 193H35.8281V184.53C35.7415 184.617 35.6139 184.717 35.4453 184.831C35.2812 184.94 35.0944 185.05 34.8848 185.159C34.6797 185.269 34.4609 185.371 34.2285 185.467C34.0007 185.562 33.7773 185.638 33.5586 185.692V184.558C33.8047 184.489 34.0645 184.398 34.3379 184.284C34.6159 184.166 34.887 184.036 35.1514 183.895C35.4202 183.749 35.6732 183.598 35.9102 183.443C36.1471 183.284 36.3522 183.129 36.5254 182.979H36.9492V193ZM41.707 191.441L40.6133 194.805H39.8135L40.6133 191.441H41.707ZM49.5547 188.058C49.5547 188.878 49.4795 189.605 49.3291 190.238C49.1833 190.872 48.9691 191.407 48.6865 191.845C48.4085 192.278 48.0645 192.608 47.6543 192.836C47.2487 193.059 46.7861 193.171 46.2666 193.171C45.7744 193.171 45.3346 193.064 44.9473 192.85C44.5645 192.631 44.2409 192.314 43.9766 191.899C43.7122 191.485 43.5117 190.977 43.375 190.375C43.2383 189.769 43.1699 189.076 43.1699 188.297C43.1699 187.44 43.2406 186.684 43.3818 186.027C43.5277 185.371 43.7396 184.822 44.0176 184.38C44.2956 183.933 44.6396 183.598 45.0498 183.375C45.4645 183.147 45.9385 183.033 46.4717 183.033C48.527 183.033 49.5547 184.708 49.5547 188.058ZM48.4062 188.167C48.4062 185.378 47.7432 183.983 46.417 183.983C45.0179 183.983 44.3184 185.403 44.3184 188.242C44.3184 190.89 45.0042 192.214 46.376 192.214C47.7295 192.214 48.4062 190.865 48.4062 188.167ZM57.1016 188.058C57.1016 188.878 57.0264 189.605 56.876 190.238C56.7301 190.872 56.516 191.407 56.2334 191.845C55.9554 192.278 55.6113 192.608 55.2012 192.836C54.7956 193.059 54.333 193.171 53.8135 193.171C53.3213 193.171 52.8815 193.064 52.4941 192.85C52.1113 192.631 51.7878 192.314 51.5234 191.899C51.2591 191.485 51.0586 190.977 50.9219 190.375C50.7852 189.769 50.7168 189.076 50.7168 188.297C50.7168 187.44 50.7874 186.684 50.9287 186.027C51.0745 185.371 51.2865 184.822 51.5645 184.38C51.8424 183.933 52.1865 183.598 52.5967 183.375C53.0114 183.147 53.4854 183.033 54.0186 183.033C56.0739 183.033 57.1016 184.708 57.1016 188.058ZM55.9531 188.167C55.9531 185.378 55.29 183.983 53.9639 183.983C52.5648 183.983 51.8652 185.403 51.8652 188.242C51.8652 190.89 52.5511 192.214 53.9229 192.214C55.2764 192.214 55.9531 190.865 55.9531 188.167ZM64.6484 188.058C64.6484 188.878 64.5732 189.605 64.4229 190.238C64.277 190.872 64.0628 191.407 63.7803 191.845C63.5023 192.278 63.1582 192.608 62.748 192.836C62.3424 193.059 61.8799 193.171 61.3604 193.171C60.8682 193.171 60.4284 193.064 60.041 192.85C59.6582 192.631 59.3346 192.314 59.0703 191.899C58.806 191.485 58.6055 190.977 58.4688 190.375C58.332 189.769 58.2637 189.076 58.2637 188.297C58.2637 187.44 58.3343 186.684 58.4756 186.027C58.6214 185.371 58.8333 184.822 59.1113 184.38C59.3893 183.933 59.7334 183.598 60.1436 183.375C60.5583 183.147 61.0322 183.033 61.5654 183.033C63.6208 183.033 64.6484 184.708 64.6484 188.058ZM63.5 188.167C63.5 185.378 62.8369 183.983 61.5107 183.983C60.1117 183.983 59.4121 185.403 59.4121 188.242C59.4121 190.89 60.098 192.214 61.4697 192.214C62.8232 192.214 63.5 190.865 63.5 188.167Z" fill="#A2A4B9"/>
<path d="M38.9727 227.058C38.9727 227.878 38.8975 228.605 38.7471 229.238C38.6012 229.872 38.387 230.407 38.1045 230.845C37.8265 231.278 37.4824 231.608 37.0723 231.836C36.6667 232.059 36.2041 232.171 35.6846 232.171C35.1924 232.171 34.7526 232.064 34.3652 231.85C33.9824 231.631 33.6589 231.314 33.3945 230.899C33.1302 230.485 32.9297 229.977 32.793 229.375C32.6562 228.769 32.5879 228.076 32.5879 227.297C32.5879 226.44 32.6585 225.684 32.7998 225.027C32.9456 224.371 33.1576 223.822 33.4355 223.38C33.7135 222.933 34.0576 222.598 34.4678 222.375C34.8825 222.147 35.3564 222.033 35.8896 222.033C37.945 222.033 38.9727 223.708 38.9727 227.058ZM37.8242 227.167C37.8242 224.378 37.1611 222.983 35.835 222.983C34.4359 222.983 33.7363 224.403 33.7363 227.242C33.7363 229.89 34.4222 231.214 35.7939 231.214C37.1475 231.214 37.8242 229.865 37.8242 227.167Z" fill="#A2A4B9"/>
<path d="M194.188 264H192.779L187.734 256.187C187.607 255.991 187.502 255.785 187.42 255.571H187.379C187.415 255.781 187.434 256.23 187.434 256.918V264H186.285V254.197H187.775L192.684 261.888C192.889 262.207 193.021 262.425 193.08 262.544H193.107C193.062 262.261 193.039 261.781 193.039 261.102V254.197H194.188V264ZM199.533 264.164C198.499 264.164 197.672 263.838 197.052 263.187C196.437 262.53 196.129 261.662 196.129 260.582C196.129 259.406 196.45 258.488 197.093 257.827C197.735 257.166 198.604 256.836 199.697 256.836C200.741 256.836 201.554 257.157 202.138 257.8C202.726 258.442 203.02 259.333 203.02 260.473C203.02 261.589 202.703 262.485 202.069 263.159C201.44 263.829 200.595 264.164 199.533 264.164ZM199.615 257.779C198.895 257.779 198.326 258.025 197.906 258.518C197.487 259.005 197.277 259.68 197.277 260.541C197.277 261.37 197.489 262.024 197.913 262.503C198.337 262.981 198.904 263.221 199.615 263.221C200.34 263.221 200.896 262.986 201.283 262.517C201.675 262.047 201.871 261.38 201.871 260.514C201.871 259.639 201.675 258.964 201.283 258.49C200.896 258.016 200.34 257.779 199.615 257.779ZM210.313 257L207.524 264H206.424L203.771 257H205.002L206.779 262.086C206.911 262.46 206.993 262.785 207.025 263.063H207.053C207.098 262.713 207.171 262.396 207.271 262.113L209.131 257H210.313ZM215.105 260.541H211.373V259.659H215.105V260.541ZM220.943 264H219.822V255.53C219.736 255.617 219.608 255.717 219.439 255.831C219.275 255.94 219.089 256.05 218.879 256.159C218.674 256.269 218.455 256.371 218.223 256.467C217.995 256.562 217.771 256.638 217.553 256.692V255.558C217.799 255.489 218.059 255.398 218.332 255.284C218.61 255.166 218.881 255.036 219.146 254.895C219.414 254.749 219.667 254.598 219.904 254.443C220.141 254.284 220.346 254.129 220.52 253.979H220.943V264ZM230.404 258.511C230.404 259.409 230.315 260.208 230.138 260.91C229.96 261.607 229.7 262.2 229.358 262.688C229.017 263.171 228.6 263.54 228.107 263.795C227.615 264.046 227.055 264.171 226.426 264.171C225.779 264.171 225.209 264.057 224.717 263.829V262.756C225.259 263.061 225.838 263.214 226.453 263.214C226.895 263.214 227.289 263.123 227.636 262.94C227.987 262.758 228.283 262.494 228.524 262.147C228.766 261.797 228.951 261.366 229.078 260.855C229.206 260.345 229.27 259.759 229.27 259.099H229.242C228.823 259.942 228.094 260.363 227.055 260.363C226.635 260.363 226.25 260.29 225.899 260.145C225.549 259.994 225.245 259.785 224.99 259.516C224.735 259.242 224.537 258.919 224.396 258.545C224.254 258.171 224.184 257.759 224.184 257.308C224.184 256.825 224.261 256.382 224.416 255.981C224.576 255.58 224.794 255.236 225.072 254.949C225.355 254.658 225.688 254.432 226.07 254.272C226.458 254.113 226.879 254.033 227.335 254.033C227.827 254.033 228.262 254.133 228.641 254.334C229.023 254.53 229.345 254.819 229.604 255.202C229.864 255.58 230.062 256.048 230.199 256.604C230.336 257.16 230.404 257.795 230.404 258.511ZM229.194 257.506C229.194 257.128 229.144 256.784 229.044 256.474C228.948 256.164 228.814 255.899 228.641 255.681C228.467 255.457 228.26 255.286 228.019 255.168C227.782 255.045 227.522 254.983 227.239 254.983C226.97 254.983 226.72 255.038 226.487 255.147C226.255 255.252 226.052 255.403 225.879 255.599C225.71 255.79 225.576 256.02 225.476 256.289C225.38 256.553 225.332 256.843 225.332 257.157C225.332 257.504 225.378 257.813 225.469 258.087C225.564 258.36 225.699 258.593 225.872 258.784C226.045 258.971 226.253 259.115 226.494 259.215C226.74 259.315 227.011 259.365 227.308 259.365C227.567 259.365 227.811 259.317 228.039 259.222C228.271 259.121 228.472 258.989 228.641 258.825C228.814 258.657 228.948 258.461 229.044 258.237C229.144 258.009 229.194 257.766 229.194 257.506Z" fill="#A2A4B9"/>
<path d="M267.285 264V254.197H269.992C273.447 254.197 275.174 255.79 275.174 258.976C275.174 260.489 274.693 261.705 273.731 262.626C272.774 263.542 271.492 264 269.883 264H267.285ZM268.434 255.236V262.961H269.896C271.182 262.961 272.182 262.617 272.897 261.929C273.613 261.241 273.971 260.265 273.971 259.003C273.971 256.492 272.635 255.236 269.965 255.236H268.434ZM282.577 260.78H277.635C277.653 261.56 277.863 262.161 278.264 262.585C278.665 263.009 279.216 263.221 279.918 263.221C280.706 263.221 281.431 262.961 282.092 262.441V263.494C281.477 263.941 280.663 264.164 279.651 264.164C278.662 264.164 277.885 263.847 277.32 263.214C276.755 262.576 276.473 261.68 276.473 260.527C276.473 259.438 276.78 258.552 277.396 257.868C278.015 257.18 278.783 256.836 279.699 256.836C280.615 256.836 281.324 257.132 281.825 257.725C282.326 258.317 282.577 259.14 282.577 260.192V260.78ZM281.429 259.83C281.424 259.183 281.267 258.679 280.957 258.319C280.652 257.959 280.226 257.779 279.679 257.779C279.15 257.779 278.701 257.968 278.332 258.347C277.963 258.725 277.735 259.219 277.648 259.83H281.429ZM289.051 263.679C288.513 264.002 287.875 264.164 287.137 264.164C286.139 264.164 285.332 263.84 284.717 263.193C284.106 262.542 283.801 261.699 283.801 260.664C283.801 259.511 284.131 258.586 284.792 257.889C285.453 257.187 286.335 256.836 287.438 256.836C288.053 256.836 288.595 256.95 289.064 257.178V258.326C288.545 257.962 287.989 257.779 287.396 257.779C286.681 257.779 286.093 258.037 285.633 258.552C285.177 259.062 284.949 259.734 284.949 260.568C284.949 261.389 285.163 262.036 285.592 262.51C286.025 262.984 286.604 263.221 287.328 263.221C287.939 263.221 288.513 263.018 289.051 262.612V263.679ZM294.328 260.541H290.596V259.659H294.328V260.541ZM300.166 264H299.045V255.53C298.958 255.617 298.831 255.717 298.662 255.831C298.498 255.94 298.311 256.05 298.102 256.159C297.896 256.269 297.678 256.371 297.445 256.467C297.217 256.562 296.994 256.638 296.775 256.692V255.558C297.021 255.489 297.281 255.398 297.555 255.284C297.833 255.166 298.104 255.036 298.368 254.895C298.637 254.749 298.89 254.598 299.127 254.443C299.364 254.284 299.569 254.129 299.742 253.979H300.166V264ZM309.627 258.511C309.627 259.409 309.538 260.208 309.36 260.91C309.183 261.607 308.923 262.2 308.581 262.688C308.239 263.171 307.822 263.54 307.33 263.795C306.838 264.046 306.277 264.171 305.648 264.171C305.001 264.171 304.432 264.057 303.939 263.829V262.756C304.482 263.061 305.061 263.214 305.676 263.214C306.118 263.214 306.512 263.123 306.858 262.94C307.209 262.758 307.506 262.494 307.747 262.147C307.989 261.797 308.173 261.366 308.301 260.855C308.428 260.345 308.492 259.759 308.492 259.099H308.465C308.046 259.942 307.316 260.363 306.277 260.363C305.858 260.363 305.473 260.29 305.122 260.145C304.771 259.994 304.468 259.785 304.213 259.516C303.958 259.242 303.759 258.919 303.618 258.545C303.477 258.171 303.406 257.759 303.406 257.308C303.406 256.825 303.484 256.382 303.639 255.981C303.798 255.58 304.017 255.236 304.295 254.949C304.577 254.658 304.91 254.432 305.293 254.272C305.68 254.113 306.102 254.033 306.558 254.033C307.05 254.033 307.485 254.133 307.863 254.334C308.246 254.53 308.567 254.819 308.827 255.202C309.087 255.58 309.285 256.048 309.422 256.604C309.559 257.16 309.627 257.795 309.627 258.511ZM308.417 257.506C308.417 257.128 308.367 256.784 308.267 256.474C308.171 256.164 308.036 255.899 307.863 255.681C307.69 255.457 307.483 255.286 307.241 255.168C307.004 255.045 306.744 254.983 306.462 254.983C306.193 254.983 305.942 255.038 305.71 255.147C305.478 255.252 305.275 255.403 305.102 255.599C304.933 255.79 304.799 256.02 304.698 256.289C304.603 256.553 304.555 256.843 304.555 257.157C304.555 257.504 304.6 257.813 304.691 258.087C304.787 258.36 304.922 258.593 305.095 258.784C305.268 258.971 305.475 259.115 305.717 259.215C305.963 259.315 306.234 259.365 306.53 259.365C306.79 259.365 307.034 259.317 307.262 259.222C307.494 259.121 307.695 258.989 307.863 258.825C308.036 258.657 308.171 258.461 308.267 258.237C308.367 258.009 308.417 257.766 308.417 257.506Z" fill="#A2A4B9"/>
<path d="M353.794 260.486C353.794 261.648 353.548 262.553 353.056 263.2C352.563 263.843 351.905 264.164 351.08 264.164C350.697 264.164 350.383 264.109 350.137 264V262.865C350.383 263.043 350.702 263.132 351.094 263.132C352.128 263.132 352.646 262.255 352.646 260.5V254.197H353.794V260.486ZM361.149 264H360.028V262.906H360.001C359.513 263.745 358.796 264.164 357.848 264.164C357.15 264.164 356.604 263.979 356.207 263.61C355.815 263.241 355.619 262.751 355.619 262.141C355.619 260.833 356.389 260.072 357.93 259.857L360.028 259.563C360.028 258.374 359.548 257.779 358.586 257.779C357.743 257.779 356.982 258.066 356.303 258.641V257.492C356.991 257.055 357.784 256.836 358.682 256.836C360.327 256.836 361.149 257.706 361.149 259.447V264ZM360.028 260.459L358.34 260.691C357.82 260.764 357.428 260.894 357.164 261.081C356.9 261.263 356.768 261.589 356.768 262.059C356.768 262.4 356.888 262.681 357.13 262.899C357.376 263.114 357.702 263.221 358.107 263.221C358.663 263.221 359.121 263.027 359.481 262.64C359.846 262.248 360.028 261.753 360.028 261.156V260.459ZM369.072 264H367.951V260.008C367.951 258.522 367.409 257.779 366.324 257.779C365.764 257.779 365.299 257.991 364.93 258.415C364.565 258.834 364.383 259.365 364.383 260.008V264H363.262V257H364.383V258.162H364.41C364.939 257.278 365.704 256.836 366.707 256.836C367.473 256.836 368.058 257.084 368.464 257.581C368.869 258.073 369.072 258.786 369.072 259.721V264ZM374.773 260.541H371.041V259.659H374.773V260.541ZM380.939 256.768C380.939 256.467 380.892 256.205 380.796 255.981C380.705 255.758 380.577 255.574 380.413 255.428C380.254 255.277 380.064 255.166 379.846 255.093C379.627 255.02 379.39 254.983 379.135 254.983C378.916 254.983 378.702 255.013 378.492 255.072C378.283 255.132 378.077 255.214 377.877 255.318C377.681 255.423 377.49 255.549 377.303 255.694C377.12 255.84 376.95 256.002 376.79 256.18V254.977C377.104 254.671 377.455 254.439 377.843 254.279C378.235 254.115 378.711 254.033 379.271 254.033C379.673 254.033 380.044 254.092 380.386 254.211C380.728 254.325 381.024 254.493 381.274 254.717C381.525 254.94 381.721 255.216 381.862 255.544C382.008 255.872 382.081 256.248 382.081 256.672C382.081 257.059 382.035 257.41 381.944 257.725C381.858 258.039 381.723 258.335 381.541 258.613C381.363 258.891 381.138 259.158 380.864 259.413C380.591 259.668 380.27 259.928 379.9 260.192C379.44 260.521 379.06 260.801 378.759 261.033C378.463 261.266 378.226 261.484 378.048 261.689C377.875 261.89 377.752 262.093 377.679 262.298C377.61 262.498 377.576 262.731 377.576 262.995H382.457V264H376.407V263.515C376.407 263.095 376.453 262.726 376.544 262.407C376.635 262.088 376.785 261.785 376.995 261.498C377.205 261.211 377.478 260.924 377.815 260.637C378.157 260.35 378.574 260.026 379.066 259.666C379.422 259.411 379.718 259.167 379.955 258.935C380.197 258.702 380.39 258.47 380.536 258.237C380.682 258.005 380.785 257.77 380.844 257.533C380.908 257.292 380.939 257.036 380.939 256.768ZM390.182 259.058C390.182 259.878 390.106 260.605 389.956 261.238C389.81 261.872 389.596 262.407 389.313 262.845C389.035 263.278 388.691 263.608 388.281 263.836C387.876 264.059 387.413 264.171 386.894 264.171C386.401 264.171 385.962 264.064 385.574 263.85C385.191 263.631 384.868 263.314 384.604 262.899C384.339 262.485 384.139 261.977 384.002 261.375C383.865 260.769 383.797 260.076 383.797 259.297C383.797 258.44 383.868 257.684 384.009 257.027C384.155 256.371 384.367 255.822 384.645 255.38C384.923 254.933 385.267 254.598 385.677 254.375C386.091 254.147 386.565 254.033 387.099 254.033C389.154 254.033 390.182 255.708 390.182 259.058ZM389.033 259.167C389.033 256.378 388.37 254.983 387.044 254.983C385.645 254.983 384.945 256.403 384.945 259.242C384.945 261.89 385.631 263.214 387.003 263.214C388.356 263.214 389.033 261.865 389.033 259.167Z" fill="#A2A4B9"/>
<path d="M435.262 255.236H431.434V258.627H434.975V259.659H431.434V264H430.285V254.197H435.262V255.236ZM442.597 260.78H437.654C437.673 261.56 437.882 262.161 438.283 262.585C438.684 263.009 439.236 263.221 439.938 263.221C440.726 263.221 441.451 262.961 442.111 262.441V263.494C441.496 263.941 440.683 264.164 439.671 264.164C438.682 264.164 437.905 263.847 437.34 263.214C436.775 262.576 436.492 261.68 436.492 260.527C436.492 259.438 436.8 258.552 437.415 257.868C438.035 257.18 438.803 256.836 439.719 256.836C440.635 256.836 441.343 257.132 441.845 257.725C442.346 258.317 442.597 259.14 442.597 260.192V260.78ZM441.448 259.83C441.444 259.183 441.286 258.679 440.977 258.319C440.671 257.959 440.245 257.779 439.698 257.779C439.17 257.779 438.721 257.968 438.352 258.347C437.982 258.725 437.755 259.219 437.668 259.83H441.448ZM445.447 262.988H445.42V264H444.299V253.637H445.42V258.23H445.447C445.999 257.301 446.805 256.836 447.867 256.836C448.765 256.836 449.467 257.15 449.973 257.779C450.483 258.404 450.738 259.242 450.738 260.295C450.738 261.466 450.453 262.405 449.884 263.111C449.314 263.813 448.535 264.164 447.546 264.164C446.621 264.164 445.921 263.772 445.447 262.988ZM445.42 260.165V261.143C445.42 261.721 445.607 262.214 445.98 262.619C446.359 263.02 446.837 263.221 447.416 263.221C448.095 263.221 448.626 262.961 449.009 262.441C449.396 261.922 449.59 261.2 449.59 260.274C449.59 259.495 449.41 258.884 449.05 258.442C448.69 258 448.202 257.779 447.587 257.779C446.935 257.779 446.411 258.007 446.015 258.463C445.618 258.914 445.42 259.481 445.42 260.165ZM456.111 260.541H452.379V259.659H456.111V260.541ZM462.277 256.768C462.277 256.467 462.229 256.205 462.134 255.981C462.043 255.758 461.915 255.574 461.751 255.428C461.591 255.277 461.402 255.166 461.184 255.093C460.965 255.02 460.728 254.983 460.473 254.983C460.254 254.983 460.04 255.013 459.83 255.072C459.62 255.132 459.415 255.214 459.215 255.318C459.019 255.423 458.827 255.549 458.641 255.694C458.458 255.84 458.287 256.002 458.128 256.18V254.977C458.442 254.671 458.793 254.439 459.181 254.279C459.573 254.115 460.049 254.033 460.609 254.033C461.01 254.033 461.382 254.092 461.724 254.211C462.065 254.325 462.362 254.493 462.612 254.717C462.863 254.94 463.059 255.216 463.2 255.544C463.346 255.872 463.419 256.248 463.419 256.672C463.419 257.059 463.373 257.41 463.282 257.725C463.196 258.039 463.061 258.335 462.879 258.613C462.701 258.891 462.476 259.158 462.202 259.413C461.929 259.668 461.607 259.928 461.238 260.192C460.778 260.521 460.397 260.801 460.097 261.033C459.8 261.266 459.563 261.484 459.386 261.689C459.213 261.89 459.09 262.093 459.017 262.298C458.948 262.498 458.914 262.731 458.914 262.995H463.795V264H457.745V263.515C457.745 263.095 457.791 262.726 457.882 262.407C457.973 262.088 458.123 261.785 458.333 261.498C458.543 261.211 458.816 260.924 459.153 260.637C459.495 260.35 459.912 260.026 460.404 259.666C460.76 259.411 461.056 259.167 461.293 258.935C461.535 258.702 461.728 258.47 461.874 258.237C462.02 258.005 462.122 257.77 462.182 257.533C462.245 257.292 462.277 257.036 462.277 256.768ZM471.52 259.058C471.52 259.878 471.444 260.605 471.294 261.238C471.148 261.872 470.934 262.407 470.651 262.845C470.373 263.278 470.029 263.608 469.619 263.836C469.214 264.059 468.751 264.171 468.231 264.171C467.739 264.171 467.299 264.064 466.912 263.85C466.529 263.631 466.206 263.314 465.941 262.899C465.677 262.485 465.477 261.977 465.34 261.375C465.203 260.769 465.135 260.076 465.135 259.297C465.135 258.44 465.205 257.684 465.347 257.027C465.493 256.371 465.704 255.822 465.982 255.38C466.26 254.933 466.604 254.598 467.015 254.375C467.429 254.147 467.903 254.033 468.437 254.033C470.492 254.033 471.52 255.708 471.52 259.058ZM470.371 259.167C470.371 256.378 469.708 254.983 468.382 254.983C466.983 254.983 466.283 256.403 466.283 259.242C466.283 261.89 466.969 263.214 468.341 263.214C469.694 263.214 470.371 261.865 470.371 259.167Z" fill="#A2A4B9"/>
<path d="M521.279 264H520.138V257.424C520.138 256.904 520.17 256.269 520.233 255.517H520.206C520.097 255.959 519.999 256.275 519.912 256.467L516.562 264H516.002L512.659 256.521C512.563 256.303 512.465 255.968 512.365 255.517H512.338C512.374 255.909 512.393 256.549 512.393 257.438V264H511.285V254.197H512.803L515.811 261.033C516.043 261.557 516.193 261.949 516.262 262.209H516.303C516.499 261.671 516.656 261.27 516.774 261.006L519.844 254.197H521.279V264ZM528.724 264H527.603V262.906H527.575C527.088 263.745 526.37 264.164 525.422 264.164C524.725 264.164 524.178 263.979 523.781 263.61C523.389 263.241 523.193 262.751 523.193 262.141C523.193 260.833 523.964 260.072 525.504 259.857L527.603 259.563C527.603 258.374 527.122 257.779 526.16 257.779C525.317 257.779 524.556 258.066 523.877 258.641V257.492C524.565 257.055 525.358 256.836 526.256 256.836C527.901 256.836 528.724 257.706 528.724 259.447V264ZM527.603 260.459L525.914 260.691C525.395 260.764 525.003 260.894 524.738 261.081C524.474 261.263 524.342 261.589 524.342 262.059C524.342 262.4 524.463 262.681 524.704 262.899C524.95 263.114 525.276 263.221 525.682 263.221C526.238 263.221 526.696 263.027 527.056 262.64C527.42 262.248 527.603 261.753 527.603 261.156V260.459ZM534.486 258.135C534.29 257.984 534.008 257.909 533.639 257.909C533.16 257.909 532.759 258.135 532.436 258.586C532.117 259.037 531.957 259.652 531.957 260.432V264H530.836V257H531.957V258.442H531.984C532.144 257.95 532.388 257.567 532.716 257.294C533.044 257.016 533.411 256.877 533.816 256.877C534.108 256.877 534.331 256.909 534.486 256.973V258.135ZM539.285 260.541H535.553V259.659H539.285V260.541ZM545.451 256.768C545.451 256.467 545.403 256.205 545.308 255.981C545.216 255.758 545.089 255.574 544.925 255.428C544.765 255.277 544.576 255.166 544.357 255.093C544.139 255.02 543.902 254.983 543.646 254.983C543.428 254.983 543.214 255.013 543.004 255.072C542.794 255.132 542.589 255.214 542.389 255.318C542.193 255.423 542.001 255.549 541.814 255.694C541.632 255.84 541.461 256.002 541.302 256.18V254.977C541.616 254.671 541.967 254.439 542.354 254.279C542.746 254.115 543.223 254.033 543.783 254.033C544.184 254.033 544.556 254.092 544.897 254.211C545.239 254.325 545.535 254.493 545.786 254.717C546.037 254.94 546.233 255.216 546.374 255.544C546.52 255.872 546.593 256.248 546.593 256.672C546.593 257.059 546.547 257.41 546.456 257.725C546.369 258.039 546.235 258.335 546.053 258.613C545.875 258.891 545.649 259.158 545.376 259.413C545.103 259.668 544.781 259.928 544.412 260.192C543.952 260.521 543.571 260.801 543.271 261.033C542.974 261.266 542.737 261.484 542.56 261.689C542.386 261.89 542.263 262.093 542.19 262.298C542.122 262.498 542.088 262.731 542.088 262.995H546.969V264H540.919V263.515C540.919 263.095 540.965 262.726 541.056 262.407C541.147 262.088 541.297 261.785 541.507 261.498C541.716 261.211 541.99 260.924 542.327 260.637C542.669 260.35 543.086 260.026 543.578 259.666C543.934 259.411 544.23 259.167 544.467 258.935C544.708 258.702 544.902 258.47 545.048 258.237C545.194 258.005 545.296 257.77 545.355 257.533C545.419 257.292 545.451 257.036 545.451 256.768ZM554.693 259.058C554.693 259.878 554.618 260.605 554.468 261.238C554.322 261.872 554.108 262.407 553.825 262.845C553.547 263.278 553.203 263.608 552.793 263.836C552.387 264.059 551.925 264.171 551.405 264.171C550.913 264.171 550.473 264.064 550.086 263.85C549.703 263.631 549.38 263.314 549.115 262.899C548.851 262.485 548.65 261.977 548.514 261.375C548.377 260.769 548.309 260.076 548.309 259.297C548.309 258.44 548.379 257.684 548.521 257.027C548.666 256.371 548.878 255.822 549.156 255.38C549.434 254.933 549.778 254.598 550.188 254.375C550.603 254.147 551.077 254.033 551.61 254.033C553.666 254.033 554.693 255.708 554.693 259.058ZM553.545 259.167C553.545 256.378 552.882 254.983 551.556 254.983C550.157 254.983 549.457 256.403 549.457 259.242C549.457 261.89 550.143 263.214 551.515 263.214C552.868 263.214 553.545 261.865 553.545 259.167Z" fill="#A2A4B9"/>
<path d="M617.279 264H616.138V257.424C616.138 256.904 616.17 256.269 616.233 255.517H616.206C616.097 255.959 615.999 256.275 615.912 256.467L612.562 264H612.002L608.659 256.521C608.563 256.303 608.465 255.968 608.365 255.517H608.338C608.374 255.909 608.393 256.549 608.393 257.438V264H607.285V254.197H608.803L611.811 261.033C612.043 261.557 612.193 261.949 612.262 262.209H612.303C612.499 261.671 612.656 261.27 612.774 261.006L615.844 254.197H617.279V264ZM624.724 264H623.603V262.906H623.575C623.088 263.745 622.37 264.164 621.422 264.164C620.725 264.164 620.178 263.979 619.781 263.61C619.389 263.241 619.193 262.751 619.193 262.141C619.193 260.833 619.964 260.072 621.504 259.857L623.603 259.563C623.603 258.374 623.122 257.779 622.16 257.779C621.317 257.779 620.556 258.066 619.877 258.641V257.492C620.565 257.055 621.358 256.836 622.256 256.836C623.901 256.836 624.724 257.706 624.724 259.447V264ZM623.603 260.459L621.914 260.691C621.395 260.764 621.003 260.894 620.738 261.081C620.474 261.263 620.342 261.589 620.342 262.059C620.342 262.4 620.463 262.681 620.704 262.899C620.95 263.114 621.276 263.221 621.682 263.221C622.238 263.221 622.696 263.027 623.056 262.64C623.42 262.248 623.603 261.753 623.603 261.156V260.459ZM630.486 258.135C630.29 257.984 630.008 257.909 629.639 257.909C629.16 257.909 628.759 258.135 628.436 258.586C628.117 259.037 627.957 259.652 627.957 260.432V264H626.836V257H627.957V258.442H627.984C628.144 257.95 628.388 257.567 628.716 257.294C629.044 257.016 629.411 256.877 629.816 256.877C630.108 256.877 630.331 256.909 630.486 256.973V258.135ZM635.285 260.541H631.553V259.659H635.285V260.541ZM641.451 256.768C641.451 256.467 641.403 256.205 641.308 255.981C641.216 255.758 641.089 255.574 640.925 255.428C640.765 255.277 640.576 255.166 640.357 255.093C640.139 255.02 639.902 254.983 639.646 254.983C639.428 254.983 639.214 255.013 639.004 255.072C638.794 255.132 638.589 255.214 638.389 255.318C638.193 255.423 638.001 255.549 637.814 255.694C637.632 255.84 637.461 256.002 637.302 256.18V254.977C637.616 254.671 637.967 254.439 638.354 254.279C638.746 254.115 639.223 254.033 639.783 254.033C640.184 254.033 640.556 254.092 640.897 254.211C641.239 254.325 641.535 254.493 641.786 254.717C642.037 254.94 642.233 255.216 642.374 255.544C642.52 255.872 642.593 256.248 642.593 256.672C642.593 257.059 642.547 257.41 642.456 257.725C642.369 258.039 642.235 258.335 642.053 258.613C641.875 258.891 641.649 259.158 641.376 259.413C641.103 259.668 640.781 259.928 640.412 260.192C639.952 260.521 639.571 260.801 639.271 261.033C638.974 261.266 638.737 261.484 638.56 261.689C638.386 261.89 638.263 262.093 638.19 262.298C638.122 262.498 638.088 262.731 638.088 262.995H642.969V264H636.919V263.515C636.919 263.095 636.965 262.726 637.056 262.407C637.147 262.088 637.297 261.785 637.507 261.498C637.716 261.211 637.99 260.924 638.327 260.637C638.669 260.35 639.086 260.026 639.578 259.666C639.934 259.411 640.23 259.167 640.467 258.935C640.708 258.702 640.902 258.47 641.048 258.237C641.194 258.005 641.296 257.77 641.355 257.533C641.419 257.292 641.451 257.036 641.451 256.768ZM650.693 259.058C650.693 259.878 650.618 260.605 650.468 261.238C650.322 261.872 650.108 262.407 649.825 262.845C649.547 263.278 649.203 263.608 648.793 263.836C648.387 264.059 647.925 264.171 647.405 264.171C646.913 264.171 646.473 264.064 646.086 263.85C645.703 263.631 645.38 263.314 645.115 262.899C644.851 262.485 644.65 261.977 644.514 261.375C644.377 260.769 644.309 260.076 644.309 259.297C644.309 258.44 644.379 257.684 644.521 257.027C644.666 256.371 644.878 255.822 645.156 255.38C645.434 254.933 645.778 254.598 646.188 254.375C646.603 254.147 647.077 254.033 647.61 254.033C649.666 254.033 650.693 255.708 650.693 259.058ZM649.545 259.167C649.545 256.378 648.882 254.983 647.556 254.983C646.157 254.983 645.457 256.403 645.457 259.242C645.457 261.89 646.143 263.214 647.515 263.214C648.868 263.214 649.545 261.865 649.545 259.167Z" fill="#A2A4B9"/>
<line x1="1" y1="61.5" x2="699" y2="61.5" stroke="#E0E0E0"/>
<line x1="77" y1="103.5" x2="687" y2="103.5" stroke="#E4E3E9" stroke-dasharray="4 2"/>
<line x1="77" y1="144.5" x2="687" y2="144.5" stroke="#E4E3E9" stroke-dasharray="4 2"/>
<line x1="77" y1="186.5" x2="687" y2="186.5" stroke="#E4E3E9" stroke-dasharray="4 2"/>
<line x1="77" y1="228.5" x2="687" y2="228.5" stroke="#E4E3E9"/>
<path d="M118 228L118 120C118 118.895 118.895 118 120 118L123.384 118C124.489 118 125.384 118.895 125.384 120L125.384 228L118 228Z" fill="#33D69F"/>
<path d="M129 228L129 192C129 190.895 129.895 190 131 190L134.384 190C135.489 190 136.384 190.895 136.384 192L136.384 228L129 228Z" fill="#253274"/>
<path d="M199 228L199 178C199 176.895 199.895 176 201 176L204 176C205.105 176 206 176.895 206 178L206 228L199 228Z" fill="#33D69F"/>
<path d="M210 228L210 143C210 141.895 210.895 141 212 141L215 141C216.105 141 217 141.895 217 143L217 228L210 228Z" fill="#253274"/>
<path d="M280 228L280 209C280 207.895 280.895 207 282 207L285 207C286.105 207 287 207.895 287 209L287 228L280 228Z" fill="#33D69F"/>
<path d="M291 228L291 113C291 111.895 291.895 111 293 111L296 111C297.105 111 298 111.895 298 113L298 228L291 228Z" fill="#253274"/>
<path d="M361 228L361 200C361 198.895 361.895 198 363 198L366 198C367.105 198 368 198.895 368 200L368 228L361 228Z" fill="#33D69F"/>
<path d="M372 228L372 157C372 155.895 372.895 155 374 155L377 155C378.105 155 379 155.895 379 157L379 228L372 228Z" fill="#253274"/>
<path d="M442 228L442 193C442 191.895 442.895 191 444 191L447 191C448.105 191 449 191.895 449 193L449 228L442 228Z" fill="#33D69F"/>
<path d="M453 228L453 150C453 148.895 453.895 148 455 148L458 148C459.105 148 460 148.895 460 150L460 228L453 228Z" fill="#253274"/>
<path d="M525 228L525 206C525 204.895 525.895 204 527 204L530 204C531.105 204 532 204.895 532 206L532 228L525 228Z" fill="#33D69F"/>
<path d="M536 228L536 129C536 127.895 536.895 127 538 127L541 127C542.105 127 543 127.895 543 129L543 228L536 228Z" fill="#253274"/>
<path d="M621 228L621 206C621 204.895 621.895 204 623 204L626 204C627.105 204 628 204.895 628 206L628 228L621 228Z" fill="#33D69F"/>
<path d="M632 228L632 129C632 127.895 632.895 127 634 127L637 127C638.105 127 639 127.895 639 129L639 228L632 228Z" fill="#253274"/>
<path d="M44.6206 34.5605C43.8296 34.9707 42.8457 35.1758 41.6689 35.1758C40.1455 35.1758 38.9248 34.6948 38.0068 33.7329C37.0889 32.771 36.6299 31.5088 36.6299 29.9463C36.6299 28.2666 37.145 26.9092 38.1753 25.874C39.2104 24.8389 40.5166 24.3213 42.0938 24.3213C43.1094 24.3213 43.9517 24.4653 44.6206 24.7534V26.4819C43.9126 26.062 43.1313 25.8521 42.2769 25.8521C41.1392 25.8521 40.2163 26.2158 39.5083 26.9434C38.8052 27.6709 38.4536 28.6426 38.4536 29.8584C38.4536 31.0156 38.7832 31.9385 39.4424 32.627C40.1016 33.3105 40.9683 33.6523 42.0425 33.6523C43.0337 33.6523 43.8931 33.418 44.6206 32.9492V34.5605ZM51.2229 29.1187C51.0179 28.9575 50.7225 28.877 50.3367 28.877C49.8338 28.877 49.4139 29.104 49.077 29.5581C48.74 30.0122 48.5716 30.6299 48.5716 31.4111V35H46.8724V27.5H48.5716V29.0454H48.6009C48.7669 28.5181 49.0208 28.1079 49.3626 27.8149C49.7093 27.5171 50.095 27.3682 50.5198 27.3682C50.8274 27.3682 51.0618 27.4146 51.2229 27.5073V29.1187ZM59.0924 31.7114H53.9801C53.9996 32.4048 54.212 32.9395 54.6173 33.3154C55.0274 33.6914 55.589 33.8794 56.3019 33.8794C57.1026 33.8794 57.8375 33.6401 58.5064 33.1616V34.5312C57.8229 34.9609 56.9195 35.1758 55.7965 35.1758C54.693 35.1758 53.8263 34.8364 53.1964 34.1577C52.5714 33.4741 52.2589 32.5146 52.2589 31.2793C52.2589 30.1123 52.6031 29.1626 53.2916 28.4302C53.985 27.6929 54.8443 27.3242 55.8697 27.3242C56.8951 27.3242 57.6886 27.6538 58.2501 28.313C58.8116 28.9722 59.0924 29.8877 59.0924 31.0596V31.7114ZM57.4518 30.5103C57.4469 29.8999 57.3028 29.4263 57.0196 29.0894C56.7364 28.7476 56.3458 28.5767 55.8478 28.5767C55.3595 28.5767 54.9444 28.7549 54.6026 29.1113C54.2657 29.4678 54.0582 29.9341 53.9801 30.5103H57.4518ZM66.9179 35H65.2699V33.8281H65.2406C64.723 34.7266 63.9638 35.1758 62.9628 35.1758C62.2255 35.1758 61.6469 34.9756 61.227 34.5752C60.8119 34.1748 60.6044 33.645 60.6044 32.9858C60.6044 31.5698 61.4198 30.7446 63.0507 30.5103L65.2772 30.1953C65.2772 29.126 64.7694 28.5913 63.7538 28.5913C62.8603 28.5913 62.0546 28.8989 61.3368 29.5142V28.0273C62.1278 27.5586 63.0409 27.3242 64.0761 27.3242C65.9706 27.3242 66.9179 28.2568 66.9179 30.1221V35ZM65.2772 31.3159L63.7025 31.5356C63.2143 31.5991 62.8456 31.7188 62.5966 31.8945C62.3524 32.0654 62.2304 32.3682 62.2304 32.8027C62.2304 33.1201 62.3427 33.3813 62.5673 33.5864C62.7968 33.7866 63.102 33.8867 63.4828 33.8867C64.0004 33.8867 64.4276 33.7061 64.7646 33.3447C65.1063 32.9785 65.2772 32.5195 65.2772 31.9678V31.3159ZM73.403 34.9194C73.071 35.0854 72.634 35.1685 72.092 35.1685C70.6369 35.1685 69.9094 34.4702 69.9094 33.0737V28.833H68.6569V27.5H69.9094V25.7642L71.6086 25.2808V27.5H73.403V28.833H71.6086V32.583C71.6086 33.0273 71.6892 33.3447 71.8503 33.5352C72.0114 33.7256 72.28 33.8208 72.656 33.8208C72.944 33.8208 73.1931 33.7378 73.403 33.5718V34.9194ZM81.5801 31.7114H76.4678C76.4873 32.4048 76.6997 32.9395 77.105 33.3154C77.5151 33.6914 78.0767 33.8794 78.7896 33.8794C79.5903 33.8794 80.3252 33.6401 80.9941 33.1616V34.5312C80.3105 34.9609 79.4072 35.1758 78.2842 35.1758C77.1807 35.1758 76.314 34.8364 75.6841 34.1577C75.0591 33.4741 74.7466 32.5146 74.7466 31.2793C74.7466 30.1123 75.0908 29.1626 75.7793 28.4302C76.4727 27.6929 77.332 27.3242 78.3574 27.3242C79.3828 27.3242 80.1763 27.6538 80.7378 28.313C81.2993 28.9722 81.5801 29.8877 81.5801 31.0596V31.7114ZM79.9395 30.5103C79.9346 29.8999 79.7905 29.4263 79.5073 29.0894C79.2241 28.7476 78.8335 28.5767 78.3354 28.5767C77.8472 28.5767 77.4321 28.7549 77.0903 29.1113C76.7534 29.4678 76.5459 29.9341 76.4678 30.5103H79.9395ZM94.5797 31.7114H89.4674C89.4869 32.4048 89.6993 32.9395 90.1046 33.3154C90.5147 33.6914 91.0763 33.8794 91.7892 33.8794C92.5899 33.8794 93.3248 33.6401 93.9938 33.1616V34.5312C93.3102 34.9609 92.4068 35.1758 91.2838 35.1758C90.1803 35.1758 89.3136 34.8364 88.6837 34.1577C88.0587 33.4741 87.7462 32.5146 87.7462 31.2793C87.7462 30.1123 88.0904 29.1626 88.7789 28.4302C89.4723 27.6929 90.3316 27.3242 91.357 27.3242C92.3824 27.3242 93.1759 27.6538 93.7374 28.313C94.2989 28.9722 94.5797 29.8877 94.5797 31.0596V31.7114ZM92.9391 30.5103C92.9342 29.8999 92.7901 29.4263 92.5069 29.0894C92.2237 28.7476 91.8331 28.5767 91.3351 28.5767C90.8468 28.5767 90.4317 28.7549 90.0899 29.1113C89.753 29.4678 89.5455 29.9341 89.4674 30.5103H92.9391ZM103.108 27.5L100.208 35H98.3695L95.6083 27.5H97.454L99.1166 32.7441C99.2436 33.1299 99.3217 33.4668 99.351 33.7549H99.3729C99.4169 33.3936 99.4853 33.0664 99.578 32.7734L101.321 27.5H103.108ZM110.948 31.7114H105.836C105.856 32.4048 106.068 32.9395 106.473 33.3154C106.883 33.6914 107.445 33.8794 108.158 33.8794C108.959 33.8794 109.694 33.6401 110.363 33.1616V34.5312C109.679 34.9609 108.776 35.1758 107.653 35.1758C106.549 35.1758 105.682 34.8364 105.052 34.1577C104.427 33.4741 104.115 32.5146 104.115 31.2793C104.115 30.1123 104.459 29.1626 105.148 28.4302C105.841 27.6929 106.7 27.3242 107.726 27.3242C108.751 27.3242 109.545 27.6538 110.106 28.313C110.668 28.9722 110.948 29.8877 110.948 31.0596V31.7114ZM109.308 30.5103C109.303 29.8999 109.159 29.4263 108.876 29.0894C108.592 28.7476 108.202 28.5767 107.704 28.5767C107.216 28.5767 106.8 28.7549 106.459 29.1113C106.122 29.4678 105.914 29.9341 105.836 30.5103H109.308ZM119.697 35H117.998V30.7739C117.998 29.3726 117.502 28.6719 116.511 28.6719C115.993 28.6719 115.566 28.8672 115.229 29.2578C114.892 29.6436 114.724 30.1318 114.724 30.7227V35H113.017V27.5H114.724V28.7451H114.753C115.314 27.7979 116.125 27.3242 117.185 27.3242C118 27.3242 118.623 27.5903 119.052 28.1226C119.482 28.6499 119.697 29.4141 119.697 30.415V35ZM126.182 34.9194C125.85 35.0854 125.413 35.1685 124.871 35.1685C123.416 35.1685 122.688 34.4702 122.688 33.0737V28.833H121.436V27.5H122.688V25.7642L124.387 25.2808V27.5H126.182V28.833H124.387V32.583C124.387 33.0273 124.468 33.3447 124.629 33.5352C124.79 33.7256 125.059 33.8208 125.435 33.8208C125.723 33.8208 125.972 33.7378 126.182 33.5718V34.9194ZM141.064 34.2822C139.97 34.8779 138.752 35.1758 137.409 35.1758C135.856 35.1758 134.599 34.6924 133.637 33.7256C132.675 32.7588 132.194 31.4795 132.194 29.8877C132.194 28.2617 132.719 26.9287 133.769 25.8887C134.824 24.8438 136.162 24.3213 137.783 24.3213C138.95 24.3213 139.931 24.4922 140.727 24.834V26.6284C139.921 26.0913 138.962 25.8228 137.849 25.8228C136.73 25.8228 135.812 26.1914 135.095 26.9287C134.382 27.666 134.025 28.6206 134.025 29.7925C134.025 30.9985 134.333 31.9482 134.948 32.6416C135.563 33.3301 136.398 33.6743 137.453 33.6743C138.176 33.6743 138.801 33.5352 139.328 33.2568V30.7593H137.116V29.2944H141.064V34.2822ZM147.937 29.1187C147.732 28.9575 147.437 28.877 147.051 28.877C146.548 28.877 146.128 29.104 145.791 29.5581C145.454 30.0122 145.286 30.6299 145.286 31.4111V35H143.587V27.5H145.286V29.0454H145.315C145.481 28.5181 145.735 28.1079 146.077 27.8149C146.424 27.5171 146.809 27.3682 147.234 27.3682C147.542 27.3682 147.776 27.4146 147.937 27.5073V29.1187ZM155.345 35H153.697V33.8281H153.668C153.15 34.7266 152.391 35.1758 151.39 35.1758C150.653 35.1758 150.074 34.9756 149.654 34.5752C149.239 34.1748 149.032 33.645 149.032 32.9858C149.032 31.5698 149.847 30.7446 151.478 30.5103L153.705 30.1953C153.705 29.126 153.197 28.5913 152.181 28.5913C151.288 28.5913 150.482 28.8989 149.764 29.5142V28.0273C150.555 27.5586 151.468 27.3242 152.503 27.3242C154.398 27.3242 155.345 28.2568 155.345 30.1221V35ZM153.705 31.3159L152.13 31.5356C151.642 31.5991 151.273 31.7188 151.024 31.8945C150.78 32.0654 150.658 32.3682 150.658 32.8027C150.658 33.1201 150.77 33.3813 150.995 33.5864C151.224 33.7866 151.529 33.8867 151.91 33.8867C152.428 33.8867 152.855 33.7061 153.192 33.3447C153.534 32.9785 153.705 32.5195 153.705 31.9678V31.3159ZM159.604 33.894H159.575V38.4497H157.875V27.5H159.575V28.8184H159.604C160.185 27.8223 161.034 27.3242 162.153 27.3242C163.105 27.3242 163.847 27.6587 164.379 28.3276C164.911 28.9966 165.178 29.895 165.178 31.0229C165.178 32.2729 164.877 33.2739 164.277 34.0259C163.676 34.7778 162.856 35.1538 161.816 35.1538C160.859 35.1538 160.121 34.7339 159.604 33.894ZM159.56 30.9351V31.8652C159.56 32.4121 159.733 32.876 160.08 33.2568C160.431 33.6377 160.876 33.8281 161.413 33.8281C162.043 33.8281 162.536 33.584 162.892 33.0957C163.254 32.6025 163.434 31.9165 163.434 31.0376C163.434 30.3003 163.266 29.7241 162.929 29.3091C162.597 28.8892 162.145 28.6792 161.574 28.6792C160.969 28.6792 160.48 28.894 160.109 29.3237C159.743 29.7534 159.56 30.2905 159.56 30.9351ZM174.028 35H172.329V30.8984C172.329 29.4141 171.834 28.6719 170.842 28.6719C170.344 28.6719 169.924 28.8867 169.583 29.3164C169.241 29.7461 169.07 30.2954 169.07 30.9644V35H167.363V23.8965H169.07V28.7451H169.099C169.666 27.7979 170.476 27.3242 171.531 27.3242C173.196 27.3242 174.028 28.3423 174.028 30.3784V35Z" fill="#42474A"/>
<rect x="217" y="29" width="15" height="6" rx="2" fill="#33D69F"/>
<path d="M243.703 35H240.734V29.3984H243.578V29.9922H241.391V31.8555H243.414V32.4453H241.391V34.4062H243.703V35ZM247.84 31L246.246 35H245.617L244.102 31H244.805L245.82 33.9062C245.896 34.1198 245.943 34.306 245.961 34.4648H245.977C246.003 34.2643 246.044 34.0833 246.102 33.9219L247.164 31H247.84ZM251.746 33.1602H248.922C248.932 33.6055 249.052 33.9492 249.281 34.1914C249.51 34.4336 249.826 34.5547 250.227 34.5547C250.677 34.5547 251.091 34.4062 251.469 34.1094V34.7109C251.117 34.9661 250.652 35.0938 250.074 35.0938C249.509 35.0938 249.065 34.9128 248.742 34.5508C248.419 34.1862 248.258 33.6745 248.258 33.0156C248.258 32.3932 248.434 31.8867 248.785 31.4961C249.139 31.1029 249.578 30.9062 250.102 30.9062C250.625 30.9062 251.03 31.0755 251.316 31.4141C251.603 31.7526 251.746 32.2227 251.746 32.8242V33.1602ZM251.09 32.6172C251.087 32.2474 250.997 31.9596 250.82 31.7539C250.646 31.5482 250.402 31.4453 250.09 31.4453C249.788 31.4453 249.531 31.5534 249.32 31.7695C249.109 31.9857 248.979 32.2682 248.93 32.6172H251.09ZM256.039 35H255.398V32.7188C255.398 31.8698 255.089 31.4453 254.469 31.4453C254.148 31.4453 253.883 31.5664 253.672 31.8086C253.464 32.0482 253.359 32.3516 253.359 32.7188V35H252.719V31H253.359V31.6641H253.375C253.677 31.1589 254.115 30.9062 254.688 30.9062C255.125 30.9062 255.46 31.0482 255.691 31.332C255.923 31.6133 256.039 32.0208 256.039 32.5547V35ZM259.105 34.9609C258.954 35.0443 258.755 35.0859 258.508 35.0859C257.807 35.0859 257.457 34.6953 257.457 33.9141V31.5469H256.77V31H257.457V30.0234L258.098 29.8164V31H259.105V31.5469H258.098V33.8008C258.098 34.069 258.143 34.2604 258.234 34.375C258.326 34.4896 258.477 34.5469 258.688 34.5469C258.849 34.5469 258.988 34.5026 259.105 34.4141V34.9609Z" fill="#A2A4B9"/>
<rect x="284" y="29" width="15" height="6" rx="2" fill="#253274"/>
<path d="M308.391 32.8828V35H307.734V29.3984H309.273C309.872 29.3984 310.336 29.5443 310.664 29.8359C310.995 30.1276 311.16 30.5391 311.16 31.0703C311.16 31.6016 310.977 32.0365 310.609 32.375C310.245 32.7135 309.751 32.8828 309.129 32.8828H308.391ZM308.391 29.9922V32.2891H309.078C309.531 32.2891 309.876 32.1862 310.113 31.9805C310.353 31.7721 310.473 31.4792 310.473 31.1016C310.473 30.362 310.035 29.9922 309.16 29.9922H308.391ZM314.723 35H314.082V34.375H314.066C313.788 34.8542 313.378 35.0938 312.836 35.0938C312.438 35.0938 312.125 34.9883 311.898 34.7773C311.674 34.5664 311.562 34.2865 311.562 33.9375C311.562 33.1901 312.003 32.7552 312.883 32.6328L314.082 32.4648C314.082 31.7852 313.807 31.4453 313.258 31.4453C312.776 31.4453 312.341 31.6094 311.953 31.9375V31.2812C312.346 31.0312 312.799 30.9062 313.312 30.9062C314.253 30.9062 314.723 31.4036 314.723 32.3984V35ZM314.082 32.9766L313.117 33.1094C312.82 33.151 312.596 33.2253 312.445 33.332C312.294 33.4362 312.219 33.6224 312.219 33.8906C312.219 34.0859 312.288 34.2461 312.426 34.3711C312.566 34.4935 312.753 34.5547 312.984 34.5547C313.302 34.5547 313.564 34.444 313.77 34.2227C313.978 33.9987 314.082 33.7161 314.082 33.375V32.9766ZM316.258 29.9844C316.143 29.9844 316.046 29.9453 315.965 29.8672C315.884 29.7891 315.844 29.6901 315.844 29.5703C315.844 29.4505 315.884 29.3516 315.965 29.2734C316.046 29.1927 316.143 29.1523 316.258 29.1523C316.375 29.1523 316.474 29.1927 316.555 29.2734C316.638 29.3516 316.68 29.4505 316.68 29.5703C316.68 29.6849 316.638 29.7826 316.555 29.8633C316.474 29.944 316.375 29.9844 316.258 29.9844ZM316.57 35H315.93V31H316.57V35ZM321.281 35H320.641V34.3203H320.625C320.328 34.8359 319.87 35.0938 319.25 35.0938C318.747 35.0938 318.345 34.9154 318.043 34.5586C317.743 34.1992 317.594 33.7109 317.594 33.0938C317.594 32.4323 317.76 31.9023 318.094 31.5039C318.427 31.1055 318.871 30.9062 319.426 30.9062C319.975 30.9062 320.375 31.1224 320.625 31.5547H320.641V29.0781H321.281V35ZM320.641 33.1914V32.6016C320.641 32.2786 320.534 32.0052 320.32 31.7812C320.107 31.5573 319.836 31.4453 319.508 31.4453C319.117 31.4453 318.81 31.5885 318.586 31.875C318.362 32.1615 318.25 32.5573 318.25 33.0625C318.25 33.5234 318.357 33.888 318.57 34.1562C318.786 34.4219 319.076 34.5547 319.438 34.5547C319.794 34.5547 320.083 34.4258 320.305 34.168C320.529 33.9102 320.641 33.5846 320.641 33.1914ZM327.988 33.1602H325.164C325.174 33.6055 325.294 33.9492 325.523 34.1914C325.753 34.4336 326.068 34.5547 326.469 34.5547C326.919 34.5547 327.333 34.4062 327.711 34.1094V34.7109C327.359 34.9661 326.895 35.0938 326.316 35.0938C325.751 35.0938 325.307 34.9128 324.984 34.5508C324.661 34.1862 324.5 33.6745 324.5 33.0156C324.5 32.3932 324.676 31.8867 325.027 31.4961C325.382 31.1029 325.82 30.9062 326.344 30.9062C326.867 30.9062 327.272 31.0755 327.559 31.4141C327.845 31.7526 327.988 32.2227 327.988 32.8242V33.1602ZM327.332 32.6172C327.329 32.2474 327.24 31.9596 327.062 31.7539C326.888 31.5482 326.645 31.4453 326.332 31.4453C326.03 31.4453 325.773 31.5534 325.562 31.7695C325.352 31.9857 325.221 32.2682 325.172 32.6172H327.332ZM332.105 31L330.512 35H329.883L328.367 31H329.07L330.086 33.9062C330.161 34.1198 330.208 34.306 330.227 34.4648H330.242C330.268 34.2643 330.31 34.0833 330.367 33.9219L331.43 31H332.105ZM336.012 33.1602H333.188C333.198 33.6055 333.318 33.9492 333.547 34.1914C333.776 34.4336 334.091 34.5547 334.492 34.5547C334.943 34.5547 335.357 34.4062 335.734 34.1094V34.7109C335.383 34.9661 334.918 35.0938 334.34 35.0938C333.775 35.0938 333.331 34.9128 333.008 34.5508C332.685 34.1862 332.523 33.6745 332.523 33.0156C332.523 32.3932 332.699 31.8867 333.051 31.4961C333.405 31.1029 333.844 30.9062 334.367 30.9062C334.891 30.9062 335.296 31.0755 335.582 31.4141C335.868 31.7526 336.012 32.2227 336.012 32.8242V33.1602ZM335.355 32.6172C335.353 32.2474 335.263 31.9596 335.086 31.7539C334.911 31.5482 334.668 31.4453 334.355 31.4453C334.053 31.4453 333.797 31.5534 333.586 31.7695C333.375 31.9857 333.245 32.2682 333.195 32.6172H335.355ZM340.305 35H339.664V32.7188C339.664 31.8698 339.354 31.4453 338.734 31.4453C338.414 31.4453 338.148 31.5664 337.938 31.8086C337.729 32.0482 337.625 32.3516 337.625 32.7188V35H336.984V31H337.625V31.6641H337.641C337.943 31.1589 338.38 30.9062 338.953 30.9062C339.391 30.9062 339.725 31.0482 339.957 31.332C340.189 31.6133 340.305 32.0208 340.305 32.5547V35ZM343.371 34.9609C343.22 35.0443 343.021 35.0859 342.773 35.0859C342.073 35.0859 341.723 34.6953 341.723 33.9141V31.5469H341.035V31H341.723V30.0234L342.363 29.8164V31H343.371V31.5469H342.363V33.8008C342.363 34.069 342.409 34.2604 342.5 34.375C342.591 34.4896 342.742 34.5469 342.953 34.5469C343.115 34.5469 343.254 34.5026 343.371 34.4141V34.9609Z" fill="#A2A4B9"/>
<defs>
<filter id="filter0_d" x="0" y="0" width="747" height="306" filterUnits="userSpaceOnUse" color-interpolation-filters="sRGB">
<feFlood flood-opacity="0" result="BackgroundImageFix"/>
<feColorMatrix in="SourceAlpha" type="matrix" values="0 0 0 0 0 0 0 0 0 0 0 0 0 0 0 0 0 0 127 0" result="hardAlpha"/>
<feOffset dx="3" dy="3"/>
<feGaussianBlur stdDeviation="2"/>
<feColorMatrix type="matrix" values="0 0 0 0 0 0 0 0 0 0 0 0 0 0 0 0 0 0 0.06 0"/>
<feBlend mode="normal" in2="BackgroundImageFix" result="effect1_dropShadow"/>
<feBlend mode="normal" in="SourceGraphic" in2="effect1_dropShadow" result="shape"/>
</filter>
</defs>
</svg>
