<svg width="30" height="30" viewBox="0 0 30 30" fill="none" xmlns="http://www.w3.org/2000/svg">
<path d="M15 12.1073C17.8154 12.1073 20.0977 9.825 20.0977 7.00964C20.0977 4.19429 17.8154 1.91199 15 1.91199C12.1846 1.91199 9.90234 4.19429 9.90234 7.00964C9.90234 9.825 12.1846 12.1073 15 12.1073Z" fill="#707C97"/>
<path d="M25.3125 12.1073C27.0923 12.1073 28.5352 10.6645 28.5352 8.88464C28.5352 7.10482 27.0923 5.66199 25.3125 5.66199C23.5327 5.66199 22.0898 7.10482 22.0898 8.88464C22.0898 10.6645 23.5327 12.1073 25.3125 12.1073Z" fill="#707C97"/>
<path d="M4.6875 12.1073C6.46732 12.1073 7.91016 10.6645 7.91016 8.88464C7.91016 7.10482 6.46732 5.66199 4.6875 5.66199C2.90768 5.66199 1.46484 7.10482 1.46484 8.88464C1.46484 10.6645 2.90768 12.1073 4.6875 12.1073Z" fill="#707C97"/>
<path d="M7.8627 15.0013C6.59414 13.962 5.44529 14.0995 3.97852 14.0995C1.78477 14.0995 0 15.8738 0 18.054V24.4531C0 25.3999 0.772852 26.1699 1.72324 26.1699C5.82633 26.1699 5.33203 26.2441 5.33203 25.9929C5.33203 21.4586 4.79496 18.1333 7.8627 15.0013Z" fill="#707C97"/>
<path d="M16.3951 14.1229C13.8332 13.9092 11.6063 14.1253 9.68554 15.7107C6.47126 18.2853 7.08983 21.7519 7.08983 25.9928C7.08983 27.1148 8.00272 28.0447 9.14179 28.0447C21.5099 28.0447 22.0021 28.4437 22.7355 26.8195C22.9761 26.2703 22.9101 26.4448 22.9101 21.1904C22.9101 17.017 19.2965 14.1229 16.3951 14.1229Z" fill="#707C97"/>
<path d="M26.0215 14.0994C24.5467 14.0994 23.4042 13.9632 22.1373 15.0011C25.1821 18.1099 24.668 21.2083 24.668 25.9927C24.668 26.2455 24.2576 26.1697 28.2152 26.1697C29.1996 26.1697 30 25.3722 30 24.392V18.0539C30 15.8736 28.2152 14.0994 26.0215 14.0994Z" fill="#707C97"/>
</svg>
